telnet localhost 8124
Trying 127.0.0.1...
Connected to localhost.
Escape character is '^]'.
open nakup
Opened order nakup with id: 0
add perina
Item perina added to order 0
add polstar
Item polstar added to order 0
process
Order 0 has been processed, you can open another one or exit.